experiments/04_マイケルソン干渉計/data/week1_wavelength_refractive_index/TEK00002.CSV

Model,TBS1052C
Firmware Version,v2015-08-04-prequal4ch70_v1.3

Point Format,Y
Horizontal Units,S
Horizontal Scale,0.2
Sample Interval,0.0016
Filter Frequency,2e+08
Record Length,2000
Gating,0.0% to 100.0%
Probe Attenuation,1
Vertical Units,V
Vertical Offset,0.0615
Vertical Scale,0.02
Label,
TIME,CH1
-1.600e+00,0.0623
-1.598e+00,0.0631
-1.597e+00,0.0631
-1.595e+00,0.0655
-1.594e+00,0.0647
-1.592e+00,0.0615
-1.590e+00,0.0615
-1.589e+00,0.0607
-1.587e+00,0.0631
-1.586e+00,0.0639
-1.584e+00,0.0599
-1.582e+00,0.0599
-1.581e+00,0.0607
-1.579e+00,0.0655
-1.578e+00,0.0671
-1.576e+00,0.0639
-1.574e+00,0.0615
-1.573e+00,0.0631
-1.571e+00,0.0655
-1.570e+00,0.0655
-1.568e+00,0.0615
-1.566e+00,0.0615
-1.565e+00,0.0623
-1.563e+00,0.0671
-1.562e+00,0.0623
-1.560e+00,0.0623
-1.558e+00,0.0623
-1.557e+00,0.0695
-1.555e+00,0.0679
-1.554e+00,0.0623
-1.552e+00,0.0615
-1.550e+00,0.0615
-1.549e+00,0.0695
-1.547e+00,0.0663
-1.546e+00,0.0607
-1.544e+00,0.0599
-1.542e+00,0.0615
-1.541e+00,0.0687
-1.539e+00,0.0687
-1.538e+00,0.0639
-1.536e+00,0.0623
-1.534e+00,0.0639
-1.533e+00,0.0703
-1.531e+00,0.0655
-1.530e+00,0.0623
-1.528e+00,0.0615
-1.526e+00,0.0655
-1.525e+00,0.0663
-1.523e+00,0.0631
-1.522e+00,0.0607
-1.520e+00,0.0639
-1.518e+00,0.0679
-1.517e+00,0.0679
-1.515e+00,0.0639
-1.514e+00,0.0615
-1.512e+00,0.0623
-1.510e+00,0.0663
-1.509e+00,0.0663
-1.507e+00,0.0615
-1.506e+00,0.0591
-1.504e+00,0.0599
-1.502e+00,0.0647
-1.501e+00,0.0647
-1.499e+00,0.0631
-1.498e+00,0.0631
-1.496e+00,0.0639
-1.494e+00,0.0655
-1.493e+00,0.0671
-1.491e+00,0.0639
-1.490e+00,0.0631
-1.488e+00,0.0647
-1.486e+00,0.0663
-1.485e+00,0.0639
-1.483e+00,0.0623
-1.482e+00,0.0631
-1.480e+00,0.0647
-1.478e+00,0.0647
-1.477e+00,0.0631
-1.475e+00,0.0623
-1.474e+00,0.0607
-1.472e+00,0.0615
-1.470e+00,0.0607
-1.469e+00,0.0607
-1.467e+00,0.0607
-1.466e+00,0.0599
-1.464e+00,0.0591
-1.462e+00,0.0631
-1.461e+00,0.0639
-1.459e+00,0.0639
-1.458e+00,0.0631
-1.456e+00,0.0655
-1.454e+00,0.0687
-1.453e+00,0.0711
-1.451e+00,0.0663
-1.450e+00,0.0631
-1.448e+00,0.0647
-1.446e+00,0.0679
-1.445e+00,0.0663
-1.443e+00,0.0615
-1.442e+00,0.0607
-1.440e+00,0.0615
-1.438e+00,0.0639
-1.437e+00,0.0631
-1.435e+00,0.0623
-1.434e+00,0.0615
-1.432e+00,0.0615
-1.430e+00,0.0631
-1.429e+00,0.0623
-1.427e+00,0.0615
-1.426e+00,0.0623
-1.424e+00,0.0647
-1.422e+00,0.0687
-1.421e+00,0.0663
-1.419e+00,0.0679
-1.418e+00,0.0719
-1.416e+00,0.0727
-1.414e+00,0.0695
-1.413e+00,0.0663
-1.411e+00,0.0655
-1.410e+00,0.0647
-1.408e+00,0.0647
-1.406e+00,0.0623
-1.405e+00,0.0607
-1.403e+00,0.0599
-1.402e+00,0.0615
-1.400e+00,0.0623
-1.398e+00,0.0639
-1.397e+00,0.0639
-1.395e+00,0.0639
-1.394e+00,0.0623
-1.392e+00,0.0639
-1.390e+00,0.0663
-1.389e+00,0.0695
-1.387e+00,0.0671
-1.386e+00,0.0647
-1.384e+00,0.0647
-1.382e+00,0.0687
-1.381e+00,0.0703
-1.379e+00,0.0687
-1.378e+00,0.0671
-1.376e+00,0.0663
-1.374e+00,0.0647
-1.373e+00,0.0647
-1.371e+00,0.0631
-1.370e+00,0.0623
-1.368e+00,0.0623
-1.366e+00,0.0615
-1.365e+00,0.0607
-1.363e+00,0.0607
-1.362e+00,0.0623
-1.360e+00,0.0631
-1.358e+00,0.0647
-1.357e+00,0.0647
-1.355e+00,0.0639
-1.354e+00,0.0647
-1.352e+00,0.0647
-1.350e+00,0.0647
-1.349e+00,0.0647
-1.347e+00,0.0647
-1.346e+00,0.0639
-1.344e+00,0.0631
-1.342e+00,0.0639
-1.341e+00,0.0639
-1.339e+00,0.0655
-1.338e+00,0.0639
-1.336e+00,0.0639
-1.334e+00,0.0631
-1.333e+00,0.0639
-1.331e+00,0.0647
-1.330e+00,0.0639
-1.328e+00,0.0631
-1.326e+00,0.0639
-1.325e+00,0.0623
-1.323e+00,0.0639
-1.322e+00,0.0663
-1.320e+00,0.0663
-1.318e+00,0.0687
-1.317e+00,0.0663
-1.315e+00,0.0679
-1.314e+00,0.0695
-1.312e+00,0.0671
-1.310e+00,0.0655
-1.309e+00,0.0623
-1.307e+00,0.0647
-1.306e+00,0.0663
-1.304e+00,0.0647
-1.302e+00,0.0631
-1.301e+00,0.0623
-1.299e+00,0.0663
-1.298e+00,0.0719
-1.296e+00,0.0695
-1.294e+00,0.0671
-1.293e+00,0.0671
-1.291e+00,0.0687
-1.290e+00,0.0727
-1.288e+00,0.0671
-1.286e+00,0.0655
-1.285e+00,0.0663
-1.283e+00,0.0663
-1.282e+00,0.0679
-1.280e+00,0.0647
-1.278e+00,0.0647
-1.277e+00,0.0727
-1.275e+00,0.0695
-1.274e+00,0.0687
-1.272e+00,0.0631
-1.270e+00,0.0615
-1.269e+00,0.0687
-1.267e+00,0.0735
-1.266e+00,0.0711
-1.264e+00,0.0615
-1.262e+00,0.0615
-1.261e+00,0.0679
-1.259e+00,0.0815
-1.258e+00,0.0839
-1.256e+00,0.0711
-1.254e+00,0.0631
-1.253e+00,0.0703
-1.251e+00,0.0839
-1.250e+00,0.0999
-1.248e+00,0.0751
-1.246e+00,0.0623
-1.245e+00,0.0607
-1.243e+00,0.0743
-1.242e+00,0.0855
-1.240e+00,0.0695
-1.238e+00,0.0655
-1.237e+00,0.0631
-1.235e+00,0.0703
-1.234e+00,0.0807
-1.232e+00,0.0711
-1.230e+00,0.0623
-1.229e+00,0.0615
-1.227e+00,0.0711
-1.226e+00,0.0799
-1.224e+00,0.0663
-1.222e+00,0.0607
-1.221e+00,0.0655
-1.219e+00,0.0831
-1.218e+00,0.0847
-1.216e+00,0.0711
-1.214e+00,0.0623
-1.213e+00,0.0703
-1.211e+00,0.0791
-1.210e+00,0.0735
-1.208e+00,0.0639
-1.206e+00,0.0607
-1.205e+00,0.0607
-1.203e+00,0.0679
-1.202e+00,0.0679
-1.200e+00,0.0623
-1.198e+00,0.0639
-1.197e+00,0.0639
-1.195e+00,0.0695
-1.194e+00,0.0719
-1.192e+00,0.0703
-1.190e+00,0.0623
-1.189e+00,0.0623
-1.187e+00,0.0679
-1.186e+00,0.0895
-1.184e+00,0.0855
-1.182e+00,0.0719
-1.181e+00,0.0639
-1.179e+00,0.0687
-1.178e+00,0.0799
-1.176e+00,0.0847
-1.174e+00,0.0687
-1.173e+00,0.0615
-1.171e+00,0.0615
-1.170e+00,0.0631
-1.168e+00,0.0671
-1.166e+00,0.0623
-1.165e+00,0.0599
-1.163e+00,0.0591
-1.162e+00,0.0623
-1.160e+00,0.0631
-1.158e+00,0.0695
-1.157e+00,0.0679
-1.155e+00,0.0719
-1.154e+00,0.0671
-1.152e+00,0.0695
-1.150e+00,0.0711
-1.149e+00,0.0887
-1.147e+00,0.0815
-1.146e+00,0.0727
-1.144e+00,0.0631
-1.142e+00,0.0719
-1.141e+00,0.0815
-1.139e+00,0.0791
-1.138e+00,0.0663
-1.136e+00,0.0631
-1.134e+00,0.0639
-1.133e+00,0.0695
-1.131e+00,0.0663
-1.130e+00,0.0615
-1.128e+00,0.0615
-1.126e+00,0.0647
-1.125e+00,0.0703
-1.123e+00,0.0623
-1.122e+00,0.0607
-1.120e+00,0.0655
-1.118e+00,0.0855
-1.117e+00,0.0831
-1.115e+00,0.0695
-1.114e+00,0.0631
-1.112e+00,0.0751
-1.110e+00,0.0919
-1.109e+00,0.0895
-1.107e+00,0.0671
-1.106e+00,0.0607
-1.104e+00,0.0647
-1.102e+00,0.0791
-1.101e+00,0.0751
-1.099e+00,0.0639
-1.098e+00,0.0639
-1.096e+00,0.0631
-1.094e+00,0.0687
-1.093e+00,0.0671
-1.091e+00,0.0623
-1.090e+00,0.0607
-1.088e+00,0.0623
-1.086e+00,0.0663
-1.085e+00,0.0703
-1.083e+00,0.0655
-1.082e+00,0.0631
-1.080e+00,0.0647
-1.078e+00,0.0727
-1.077e+00,0.0767
-1.075e+00,0.0711
-1.074e+00,0.0647
-1.072e+00,0.0671
-1.070e+00,0.0743
-1.069e+00,0.0751
-1.067e+00,0.0655
-1.066e+00,0.0607
-1.064e+00,0.0623
-1.062e+00,0.0719
-1.061e+00,0.0703
-1.059e+00,0.0631
-1.058e+00,0.0623
-1.056e+00,0.0639
-1.054e+00,0.0735
-1.053e+00,0.0703
-1.051e+00,0.0623
-1.050e+00,0.0615
-1.048e+00,0.0671
-1.046e+00,0.0799
-1.045e+00,0.0759
-1.043e+00,0.0631
-1.042e+00,0.0631
-1.040e+00,0.0767
-1.038e+00,0.0943
-1.037e+00,0.0895
-1.035e+00,0.0807
-1.034e+00,0.0887
-1.032e+00,0.1127
-1.030e+00,0.1223
-1.029e+00,0.1127
-1.027e+00,0.1167
-1.026e+00,0.1343
-1.024e+00,0.1471
-1.022e+00,0.1439
-1.021e+00,0.1359
-1.019e+00,0.1447
-1.018e+00,0.1671
-1.016e+00,0.1751
-1.014e+00,0.1711
-1.013e+00,0.1655
-1.011e+00,0.1727
-1.010e+00,0.1799
-1.008e+00,0.1799
-1.006e+00,0.1807
-1.005e+00,0.1791
-1.003e+00,0.1799
-1.002e+00,0.1775
-1.000e+00,0.1703
-9.984e-01,0.1719
-9.968e-01,0.1783
-9.952e-01,0.1799
-9.936e-01,0.1743
-9.920e-01,0.1599
-9.904e-01,0.1527
-9.888e-01,0.1639
-9.872e-01,0.1719
-9.856e-01,0.1615
-9.840e-01,0.1327
-9.824e-01,0.1151
-9.808e-01,0.1287
-9.792e-01,0.1447
-9.776e-01,0.1287
-9.760e-01,0.0975
-9.744e-01,0.0831
-9.728e-01,0.0911
-9.712e-01,0.0991
-9.696e-01,0.0807
-9.680e-01,0.0647
-9.664e-01,0.0647
-9.648e-01,0.0743
-9.632e-01,0.0743
-9.616e-01,0.0639
-9.600e-01,0.0671
-9.584e-01,0.0655
-9.568e-01,0.0639
-9.552e-01,0.0631
-9.536e-01,0.0687
-9.520e-01,0.0871
-9.504e-01,0.0839
-9.488e-01,0.0687
-9.472e-01,0.0663
-9.456e-01,0.0863
-9.440e-01,0.1143
-9.424e-01,0.1151
-9.408e-01,0.0991
-9.392e-01,0.0951
-9.376e-01,0.1151
-9.360e-01,0.1407
-9.344e-01,0.1479
-9.328e-01,0.1479
-9.312e-01,0.1455
-9.296e-01,0.1527
-9.280e-01,0.1647
-9.264e-01,0.1695
-9.248e-01,0.1711
-9.232e-01,0.1743
-9.216e-01,0.1775
-9.200e-01,0.1799
-9.184e-01,0.1807
-9.168e-01,0.1815
-9.152e-01,0.1807
-9.136e-01,0.1791
-9.120e-01,0.1791
-9.104e-01,0.1791
-9.088e-01,0.1791
-9.072e-01,0.1735
-9.056e-01,0.1655
-9.040e-01,0.1639
-9.024e-01,0.1727
-9.008e-01,0.1751
-8.992e-01,0.1639
-8.976e-01,0.1495
-8.960e-01,0.1479
-8.944e-01,0.1599
-8.928e-01,0.1591
-8.912e-01,0.1375
-8.896e-01,0.1111
-8.880e-01,0.1095
-8.864e-01,0.1207
-8.848e-01,0.1199
-8.832e-01,0.0959
-8.816e-01,0.0791
-8.800e-01,0.0831
-8.784e-01,0.1015
-8.768e-01,0.0983
-8.752e-01,0.0759
-8.736e-01,0.0647
-8.720e-01,0.0655
-8.704e-01,0.0703
-8.688e-01,0.0655
-8.672e-01,0.0623
-8.656e-01,0.0647
-8.640e-01,0.0615
-8.624e-01,0.0607
-8.608e-01,0.0639
-8.592e-01,0.0887
-8.576e-01,0.1007
-8.560e-01,0.0927
-8.544e-01,0.0759
-8.528e-01,0.0847
-8.512e-01,0.1087
-8.496e-01,0.1271
-8.480e-01,0.1175
-8.464e-01,0.1007
-8.448e-01,0.1047
-8.432e-01,0.1319
-8.416e-01,0.1511
-8.400e-01,0.1503
-8.384e-01,0.1407
-8.368e-01,0.1383
-8.352e-01,0.1487
-8.336e-01,0.1567
-8.320e-01,0.1591
-8.304e-01,0.1575
-8.288e-01,0.1655
-8.272e-01,0.1711
-8.256e-01,0.1743
-8.240e-01,0.1751
-8.224e-01,0.1783
-8.208e-01,0.1799
-8.192e-01,0.1807
-8.176e-01,0.1807
-8.160e-01,0.1815
-8.144e-01,0.1807
-8.128e-01,0.1791
-8.112e-01,0.1767
-8.096e-01,0.1751
-8.080e-01,0.1759
-8.064e-01,0.1759
-8.048e-01,0.1695
-8.032e-01,0.1599
-8.016e-01,0.1591
-8.000e-01,0.1671
-7.984e-01,0.1695
-7.968e-01,0.1591
-7.952e-01,0.1351
-7.936e-01,0.1223
-7.920e-01,0.1367
-7.904e-01,0.1439
-7.888e-01,0.1303
-7.872e-01,0.1079
-7.856e-01,0.0967
-7.840e-01,0.0959
-7.824e-01,0.0807
-7.808e-01,0.0671
-7.792e-01,0.0623
-7.776e-01,0.0623
-7.760e-01,0.0655
-7.744e-01,0.0631
-7.728e-01,0.0639
-7.712e-01,0.0703
-7.696e-01,0.0671
-7.680e-01,0.0631
-7.664e-01,0.0655
-7.648e-01,0.0759
-7.632e-01,0.0831
-7.616e-01,0.0719
-7.600e-01,0.0655
-7.584e-01,0.0735
-7.568e-01,0.0983
-7.552e-01,0.1047
-7.536e-01,0.0975
-7.520e-01,0.0959
-7.504e-01,0.1095
-7.488e-01,0.1351
-7.472e-01,0.1471
-7.456e-01,0.1447
-7.440e-01,0.1311
-7.424e-01,0.1359
-7.408e-01,0.1543
-7.392e-01,0.1607
-7.376e-01,0.1623
-7.360e-01,0.1591
-7.344e-01,0.1575
-7.328e-01,0.1679
-7.312e-01,0.1727
-7.296e-01,0.1719
-7.280e-01,0.1679
-7.264e-01,0.1687
-7.248e-01,0.1751
-7.232e-01,0.1783
-7.216e-01,0.1783
-7.200e-01,0.1791
-7.184e-01,0.1799
-7.168e-01,0.1807
-7.152e-01,0.1815
-7.136e-01,0.1807
-7.120e-01,0.1799
-7.104e-01,0.1799
-7.088e-01,0.1751
-7.072e-01,0.1751
-7.056e-01,0.1791
-7.040e-01,0.1791
-7.024e-01,0.1751
-7.008e-01,0.1687
-6.992e-01,0.1711
-6.976e-01,0.1767
-6.960e-01,0.1791
-6.944e-01,0.1751
-6.928e-01,0.1687
-6.912e-01,0.1655
-6.896e-01,0.1671
-6.880e-01,0.1647
-6.864e-01,0.1551
-6.848e-01,0.1455
-6.832e-01,0.1471
-6.816e-01,0.1463
-6.800e-01,0.1399
-6.784e-01,0.1271
-6.768e-01,0.1215
-6.752e-01,0.1223
-6.736e-01,0.1127
-6.720e-01,0.0935
-6.704e-01,0.0823
-6.688e-01,0.0823
-6.672e-01,0.0863
-6.656e-01,0.0775
-6.640e-01,0.0727
-6.624e-01,0.0687
-6.608e-01,0.0743
-6.592e-01,0.0791
-6.576e-01,0.0783
-6.560e-01,0.0719
-6.544e-01,0.0647
-6.528e-01,0.0631
-6.512e-01,0.0639
-6.496e-01,0.0623
-6.480e-01,0.0615
-6.464e-01,0.0631
-6.448e-01,0.0623
-6.432e-01,0.0639
-6.416e-01,0.0655
-6.400e-01,0.0671
-6.384e-01,0.0711
-6.368e-01,0.0815
-6.352e-01,0.0863
-6.336e-01,0.0815
-6.320e-01,0.0759
-6.304e-01,0.0783
-6.288e-01,0.0903
-6.272e-01,0.0943
-6.256e-01,0.0871
-6.240e-01,0.0815
-6.224e-01,0.0935
-6.208e-01,0.1191
-6.192e-01,0.1263
-6.176e-01,0.1215
-6.160e-01,0.1159
-6.144e-01,0.1167
-6.128e-01,0.1439
-6.112e-01,0.1543
-6.096e-01,0.1471
-6.080e-01,0.1311
-6.064e-01,0.1367
-6.048e-01,0.1615
-6.032e-01,0.1679
-6.016e-01,0.1647
-6.000e-01,0.1527
-5.984e-01,0.1391
-5.968e-01,0.1511
-5.952e-01,0.1591
-5.936e-01,0.1607
-5.920e-01,0.1543
-5.904e-01,0.1391
-5.888e-01,0.1615
-5.872e-01,0.1743
-5.856e-01,0.1783
-5.840e-01,0.1775
-5.824e-01,0.1743
-5.808e-01,0.1799
-5.792e-01,0.1791
-5.776e-01,0.1783
-5.760e-01,0.1807
-5.744e-01,0.1783
-5.728e-01,0.1799
-5.712e-01,0.1759
-5.696e-01,0.1775
-5.680e-01,0.1775
-5.664e-01,0.1679
-5.648e-01,0.1743
-5.632e-01,0.1783
-5.616e-01,0.1799
-5.600e-01,0.1775
-5.584e-01,0.1775
-5.568e-01,0.1783
-5.552e-01,0.1519
-5.536e-01,0.1407
-5.520e-01,0.1575
-5.504e-01,0.1623
-5.488e-01,0.1255
-5.472e-01,0.0815
-5.456e-01,0.0751
-5.440e-01,0.1231
-5.424e-01,0.1479
-5.408e-01,0.1303
-5.392e-01,0.0983
-5.376e-01,0.1151
-5.360e-01,0.1575
-5.344e-01,0.1711
-5.328e-01,0.1615
-5.312e-01,0.1199
-5.296e-01,0.0959
-5.280e-01,0.1127
-5.264e-01,0.1311
-5.248e-01,0.1231
-5.232e-01,0.0767
-5.216e-01,0.0623
-5.200e-01,0.0687
-5.184e-01,0.0767
-5.168e-01,0.0719
-5.152e-01,0.0663
-5.136e-01,0.0759
-5.120e-01,0.0655
-5.104e-01,0.0607
-5.088e-01,0.0631
-5.072e-01,0.0671
-5.056e-01,0.0719
-5.040e-01,0.0607
-5.024e-01,0.0631
-5.008e-01,0.0631
-4.992e-01,0.0639
-4.976e-01,0.0639
-4.960e-01,0.0847
-4.944e-01,0.1183
-4.928e-01,0.1031
-4.912e-01,0.0671
-4.896e-01,0.0623
-4.880e-01,0.0631
-4.864e-01,0.0655
-4.848e-01,0.0663
-4.832e-01,0.1095
-4.816e-01,0.1335
-4.800e-01,0.0935
-4.784e-01,0.0815
-4.768e-01,0.0959
-4.752e-01,0.1335
-4.736e-01,0.1471
-4.720e-01,0.1199
-4.704e-01,0.0839
-4.688e-01,0.0831
-4.672e-01,0.0831
-4.656e-01,0.0807
-4.640e-01,0.0735
-4.624e-01,0.0647
-4.608e-01,0.0663
-4.592e-01,0.0775
-4.576e-01,0.0815
-4.560e-01,0.0895
-4.544e-01,0.0999
-4.528e-01,0.1055
-4.512e-01,0.1215
-4.496e-01,0.1343
-4.480e-01,0.1479
-4.464e-01,0.1503
-4.448e-01,0.1583
-4.432e-01,0.1463
-4.416e-01,0.1551
-4.400e-01,0.1471
-4.384e-01,0.1487
-4.368e-01,0.1479
-4.352e-01,0.1455
-4.336e-01,0.1295
-4.320e-01,0.1399
-4.304e-01,0.1311
-4.288e-01,0.1351
-4.272e-01,0.1279
-4.256e-01,0.1247
-4.240e-01,0.1215
-4.224e-01,0.1175
-4.208e-01,0.1287
-4.192e-01,0.1423
-4.176e-01,0.1607
-4.160e-01,0.1615
-4.144e-01,0.1679
-4.128e-01,0.1703
-4.112e-01,0.1775
-4.096e-01,0.1791
-4.080e-01,0.1807
-4.064e-01,0.1807
-4.048e-01,0.1799
-4.032e-01,0.1783
-4.016e-01,0.1807
-4.000e-01,0.1783
-3.984e-01,0.1807
-3.968e-01,0.1799
-3.952e-01,0.1783
-3.936e-01,0.1679
-3.920e-01,0.1735
-3.904e-01,0.1759
-3.888e-01,0.1791
-3.872e-01,0.1727
-3.856e-01,0.1735
-3.840e-01,0.1767
-3.824e-01,0.1783
-3.808e-01,0.1767
-3.792e-01,0.1799
-3.776e-01,0.1815
-3.760e-01,0.1799
-3.744e-01,0.1743
-3.728e-01,0.1703
-3.712e-01,0.1767
-3.696e-01,0.1799
-3.680e-01,0.1783
-3.664e-01,0.1783
-3.648e-01,0.1775
-3.632e-01,0.1791
-3.616e-01,0.1791
-3.600e-01,0.1783
-3.584e-01,0.1751
-3.568e-01,0.1783
-3.552e-01,0.1783
-3.536e-01,0.1767
-3.520e-01,0.1599
-3.504e-01,0.1519
-3.488e-01,0.1543
-3.472e-01,0.1631
-3.456e-01,0.1559
-3.440e-01,0.1391
-3.424e-01,0.1303
-3.408e-01,0.1439
-3.392e-01,0.1631
-3.376e-01,0.1663
-3.360e-01,0.1527
-3.344e-01,0.1399
-3.328e-01,0.1463
-3.312e-01,0.1631
-3.296e-01,0.1735
-3.280e-01,0.1663
-3.264e-01,0.1511
-3.248e-01,0.1391
-3.232e-01,0.1495
-3.216e-01,0.1567
-3.200e-01,0.1447
-3.184e-01,0.1111
-3.168e-01,0.1007
-3.152e-01,0.1095
-3.136e-01,0.1247
-3.120e-01,0.1199
-3.104e-01,0.1047
-3.088e-01,0.0983
-3.072e-01,0.1151
-3.056e-01,0.1335
-3.040e-01,0.1311
-3.024e-01,0.1239
-3.008e-01,0.1287
-2.992e-01,0.1447
-2.976e-01,0.1503
-2.960e-01,0.1359
-2.944e-01,0.1191
-2.928e-01,0.1223
-2.912e-01,0.1271
-2.896e-01,0.1159
-2.880e-01,0.0903
-2.864e-01,0.0767
-2.848e-01,0.0791
-2.832e-01,0.0839
-2.816e-01,0.0775
-2.800e-01,0.0679
-2.784e-01,0.0655
-2.768e-01,0.0727
-2.752e-01,0.0807
-2.736e-01,0.0815
-2.720e-01,0.0751
-2.704e-01,0.0751
-2.688e-01,0.0823
-2.672e-01,0.0895
-2.656e-01,0.0919
-2.640e-01,0.0887
-2.624e-01,0.0855
-2.608e-01,0.0847
-2.592e-01,0.0815
-2.576e-01,0.0783
-2.560e-01,0.0751
-2.544e-01,0.0711
-2.528e-01,0.0679
-2.512e-01,0.0647
-2.496e-01,0.0631
-2.480e-01,0.0623
-2.464e-01,0.0631
-2.448e-01,0.0631
-2.432e-01,0.0631
-2.416e-01,0.0623
-2.400e-01,0.0631
-2.384e-01,0.0655
-2.368e-01,0.0767
-2.352e-01,0.0847
-2.336e-01,0.0799
-2.320e-01,0.0711
-2.304e-01,0.0703
-2.288e-01,0.0799
-2.272e-01,0.0863
-2.256e-01,0.0735
-2.240e-01,0.0631
-2.224e-01,0.0615
-2.208e-01,0.0631
-2.192e-01,0.0639
-2.176e-01,0.0647
-2.160e-01,0.0687
-2.144e-01,0.0695
-2.128e-01,0.0655
-2.112e-01,0.0639
-2.096e-01,0.0671
-2.080e-01,0.0679
-2.064e-01,0.0639
-2.048e-01,0.0607
-2.032e-01,0.0599
-2.016e-01,0.0607
-2.000e-01,0.0623
-1.984e-01,0.0631
-1.968e-01,0.0655
-1.952e-01,0.0631
-1.936e-01,0.0639
-1.920e-01,0.0647
-1.904e-01,0.0623
-1.888e-01,0.0623
-1.872e-01,0.0663
-1.856e-01,0.0799
-1.840e-01,0.0871
-1.824e-01,0.0815
-1.808e-01,0.0799
-1.792e-01,0.0847
-1.776e-01,0.0959
-1.760e-01,0.0999
-1.744e-01,0.0903
-1.728e-01,0.0791
-1.712e-01,0.0759
-1.696e-01,0.0775
-1.680e-01,0.0799
-1.664e-01,0.0735
-1.648e-01,0.0679
-1.632e-01,0.0655
-1.616e-01,0.0703
-1.600e-01,0.0735
-1.584e-01,0.0743
-1.568e-01,0.0759
-1.552e-01,0.0815
-1.536e-01,0.0887
-1.520e-01,0.0959
-1.504e-01,0.0959
-1.488e-01,0.0983
-1.472e-01,0.1079
-1.456e-01,0.1143
-1.440e-01,0.1159
-1.424e-01,0.1007
-1.408e-01,0.0991
-1.392e-01,0.1039
-1.376e-01,0.1119
-1.360e-01,0.1039
-1.344e-01,0.0927
-1.328e-01,0.0815
-1.312e-01,0.0903
-1.296e-01,0.0959
-1.280e-01,0.0983
-1.264e-01,0.0895
-1.248e-01,0.0855
-1.232e-01,0.0927
-1.216e-01,0.1071
-1.200e-01,0.1143
-1.184e-01,0.1143
-1.168e-01,0.1135
-1.152e-01,0.1215
-1.136e-01,0.1295
-1.120e-01,0.1279
-1.104e-01,0.1271
-1.088e-01,0.1239
-1.072e-01,0.1287
-1.056e-01,0.1215
-1.040e-01,0.1151
-1.024e-01,0.1079
-1.008e-01,0.1151
-9.920e-02,0.1175
-9.760e-02,0.1143
-9.600e-02,0.1023
-9.440e-02,0.1071
-9.280e-02,0.1159
-9.120e-02,0.1279
-8.960e-02,0.1239
-8.800e-02,0.1215
-8.640e-02,0.1255
-8.480e-02,0.1359
-8.320e-02,0.1431
-8.160e-02,0.1423
-8.000e-02,0.1399
-7.840e-02,0.1415
-7.680e-02,0.1415
-7.520e-02,0.1423
-7.360e-02,0.1391
-7.200e-02,0.1335
-7.040e-02,0.1327
-6.880e-02,0.1303
-6.720e-02,0.1311
-6.560e-02,0.1263
-6.400e-02,0.1263
-6.240e-02,0.1295
-6.080e-02,0.1367
-5.920e-02,0.1383
-5.760e-02,0.1391
-5.600e-02,0.1375
-5.440e-02,0.1439
-5.280e-02,0.1495
-5.120e-02,0.1527
-4.960e-02,0.1495
-4.800e-02,0.1431
-4.640e-02,0.1439
-4.480e-02,0.1479
-4.320e-02,0.1479
-4.160e-02,0.1431
-4.000e-02,0.1319
-3.840e-02,0.1311
-3.680e-02,0.1375
-3.520e-02,0.1399
-3.360e-02,0.1367
-3.200e-02,0.1295
-3.040e-02,0.1311
-2.880e-02,0.1383
-2.720e-02,0.1431
-2.560e-02,0.1439
-2.400e-02,0.1415
-2.240e-02,0.1447
-2.080e-02,0.1503
-1.920e-02,0.1527
-1.760e-02,0.1519
-1.600e-02,0.1503
-1.440e-02,0.1519
-1.280e-02,0.1511
-1.120e-02,0.1447
-9.600e-03,0.1407
-8.000e-03,0.1407
-6.400e-03,0.1431
-4.800e-03,0.1391
-3.200e-03,0.1303
-1.600e-03,0.1287
2.925e-14,0.1343
1.600e-03,0.1399
3.200e-03,0.1391
4.800e-03,0.1375
6.400e-03,0.1399
8.000e-03,0.1463
9.600e-03,0.1495
1.120e-02,0.1535
1.280e-02,0.1535
1.440e-02,0.1551
1.600e-02,0.1543
1.760e-02,0.1559
1.920e-02,0.1551
2.080e-02,0.1575
2.240e-02,0.1567
2.400e-02,0.1527
2.560e-02,0.1463
2.720e-02,0.1439
2.880e-02,0.1431
3.040e-02,0.1439
3.200e-02,0.1391
3.360e-02,0.1335
3.520e-02,0.1335
3.680e-02,0.1367
3.840e-02,0.1423
4.000e-02,0.1431
4.160e-02,0.1479
4.320e-02,0.1503
4.480e-02,0.1551
4.640e-02,0.1567
4.800e-02,0.1599
4.960e-02,0.1639
5.120e-02,0.1647
5.280e-02,0.1623
5.440e-02,0.1599
5.600e-02,0.1583
5.760e-02,0.1623
5.920e-02,0.1607
6.080e-02,0.1543
6.240e-02,0.1479
6.400e-02,0.1455
6.560e-02,0.1471
6.720e-02,0.1463
6.880e-02,0.1407
7.040e-02,0.1383
7.200e-02,0.1399
7.360e-02,0.1455
7.520e-02,0.1471
7.680e-02,0.1487
7.840e-02,0.1535
8.000e-02,0.1591
8.160e-02,0.1647
8.320e-02,0.1631
8.480e-02,0.1631
8.640e-02,0.1663
8.800e-02,0.1687
8.960e-02,0.1671
9.120e-02,0.1607
9.280e-02,0.1583
9.440e-02,0.1599
9.600e-02,0.1599
9.760e-02,0.1543
9.920e-02,0.1479
1.008e-01,0.1487
1.024e-01,0.1519
1.040e-01,0.1527
1.056e-01,0.1503
1.072e-01,0.1511
1.088e-01,0.1551
1.104e-01,0.1591
1.120e-01,0.1599
1.136e-01,0.1623
1.152e-01,0.1663
1.168e-01,0.1687
1.184e-01,0.1695
1.200e-01,0.1687
1.216e-01,0.1703
1.232e-01,0.1727
1.248e-01,0.1727
1.264e-01,0.1695
1.280e-01,0.1663
1.296e-01,0.1639
1.312e-01,0.1663
1.328e-01,0.1631
1.344e-01,0.1583
1.360e-01,0.1559
1.376e-01,0.1567
1.392e-01,0.1583
1.408e-01,0.1583
1.424e-01,0.1591
1.440e-01,0.1631
1.456e-01,0.1647
1.472e-01,0.1663
1.488e-01,0.1663
1.504e-01,0.1687
1.520e-01,0.1719
1.536e-01,0.1727
1.552e-01,0.1703
1.568e-01,0.1679
