experiments/04_マイケルソン干渉計/data/week1_wavelength_refractive_index/TEK00004.CSV

Model,TBS1052C
Firmware Version,v2015-08-04-prequal4ch70_v1.3

Point Format,Y
Horizontal Units,S
Horizontal Scale,0.2
Sample Interval,0.0016
Filter Frequency,2e+08
Record Length,2000
Gating,0.0% to 100.0%
Probe Attenuation,1
Vertical Units,V
Vertical Offset,0.0615
Vertical Scale,0.02
Label,
TIME,CH1
-1.600e+00,0.1783
-1.598e+00,0.1767
-1.597e+00,0.1767
-1.595e+00,0.1759
-1.594e+00,0.1759
-1.592e+00,0.1735
-1.590e+00,0.1751
-1.589e+00,0.1751
-1.587e+00,0.1743
-1.586e+00,0.1727
-1.584e+00,0.1743
-1.582e+00,0.1727
-1.581e+00,0.1711
-1.579e+00,0.1703
-1.578e+00,0.1695
-1.576e+00,0.1711
-1.574e+00,0.1671
-1.573e+00,0.1703
-1.571e+00,0.1695
-1.570e+00,0.1711
-1.568e+00,0.1695
-1.566e+00,0.1719
-1.565e+00,0.1711
-1.563e+00,0.1711
-1.562e+00,0.1703
-1.560e+00,0.1703
-1.558e+00,0.1695
-1.557e+00,0.1687
-1.555e+00,0.1671
-1.554e+00,0.1655
-1.552e+00,0.1655
-1.550e+00,0.1647
-1.549e+00,0.1655
-1.547e+00,0.1647
-1.546e+00,0.1655
-1.544e+00,0.1655
-1.542e+00,0.1663
-1.541e+00,0.1647
-1.539e+00,0.1679
-1.538e+00,0.1655
-1.536e+00,0.1679
-1.534e+00,0.1631
-1.533e+00,0.1663
-1.531e+00,0.1631
-1.530e+00,0.1663
-1.528e+00,0.1639
-1.526e+00,0.1647
-1.525e+00,0.1631
-1.523e+00,0.1631
-1.522e+00,0.1607
-1.520e+00,0.1615
-1.518e+00,0.1543
-1.517e+00,0.1535
-1.515e+00,0.1519
-1.514e+00,0.1535
-1.512e+00,0.1527
-1.510e+00,0.1503
-1.509e+00,0.1511
-1.507e+00,0.1551
-1.506e+00,0.1567
-1.504e+00,0.1527
-1.502e+00,0.1487
-1.501e+00,0.1535
-1.499e+00,0.1591
-1.498e+00,0.1599
-1.496e+00,0.1551
-1.494e+00,0.1535
-1.493e+00,0.1591
-1.491e+00,0.1647
-1.490e+00,0.1655
-1.488e+00,0.1647
-1.486e+00,0.1663
-1.485e+00,0.1687
-1.483e+00,0.1703
-1.482e+00,0.1679
-1.480e+00,0.1687
-1.478e+00,0.1703
-1.477e+00,0.1703
-1.475e+00,0.1703
-1.474e+00,0.1695
-1.472e+00,0.1719
-1.470e+00,0.1735
-1.469e+00,0.1735
-1.467e+00,0.1735
-1.466e+00,0.1743
-1.464e+00,0.1751
-1.462e+00,0.1759
-1.461e+00,0.1759
-1.459e+00,0.1759
-1.458e+00,0.1767
-1.456e+00,0.1767
-1.454e+00,0.1759
-1.453e+00,0.1735
-1.451e+00,0.1759
-1.450e+00,0.1775
-1.448e+00,0.1775
-1.446e+00,0.1759
-1.445e+00,0.1743
-1.443e+00,0.1767
-1.442e+00,0.1775
-1.440e+00,0.1767
-1.438e+00,0.1743
-1.437e+00,0.1743
-1.435e+00,0.1775
-1.434e+00,0.1775
-1.432e+00,0.1767
-1.430e+00,0.1759
-1.429e+00,0.1775
-1.427e+00,0.1791
-1.426e+00,0.1791
-1.424e+00,0.1767
-1.422e+00,0.1767
-1.421e+00,0.1783
-1.419e+00,0.1791
-1.418e+00,0.1775
-1.416e+00,0.1751
-1.414e+00,0.1767
-1.413e+00,0.1775
-1.411e+00,0.1783
-1.410e+00,0.1775
-1.408e+00,0.1767
-1.406e+00,0.1783
-1.405e+00,0.1791
-1.403e+00,0.1783
-1.402e+00,0.1775
-1.400e+00,0.1759
-1.398e+00,0.1783
-1.397e+00,0.1783
-1.395e+00,0.1775
-1.394e+00,0.1759
-1.392e+00,0.1759
-1.390e+00,0.1767
-1.389e+00,0.1767
-1.387e+00,0.1767
-1.386e+00,0.1759
-1.384e+00,0.1743
-1.382e+00,0.1751
-1.381e+00,0.1735
-1.379e+00,0.1727
-1.378e+00,0.1727
-1.376e+00,0.1735
-1.374e+00,0.1727
-1.373e+00,0.1703
-1.371e+00,0.1719
-1.370e+00,0.1751
-1.368e+00,0.1759
-1.366e+00,0.1743
-1.365e+00,0.1735
-1.363e+00,0.1751
-1.362e+00,0.1775
-1.360e+00,0.1767
-1.358e+00,0.1759
-1.357e+00,0.1759
-1.355e+00,0.1767
-1.354e+00,0.1767
-1.352e+00,0.1759
-1.350e+00,0.1751
-1.349e+00,0.1775
-1.347e+00,0.1791
-1.346e+00,0.1791
-1.344e+00,0.1759
-1.342e+00,0.1759
-1.341e+00,0.1775
-1.339e+00,0.1783
-1.338e+00,0.1775
-1.336e+00,0.1751
-1.334e+00,0.1743
-1.333e+00,0.1759
-1.331e+00,0.1767
-1.330e+00,0.1759
-1.328e+00,0.1759
-1.326e+00,0.1759
-1.325e+00,0.1767
-1.323e+00,0.1767
-1.322e+00,0.1767
-1.320e+00,0.1767
-1.318e+00,0.1759
-1.317e+00,0.1767
-1.315e+00,0.1767
-1.314e+00,0.1759
-1.312e+00,0.1759
-1.310e+00,0.1767
-1.309e+00,0.1783
-1.307e+00,0.1783
-1.306e+00,0.1775
-1.304e+00,0.1775
-1.302e+00,0.1775
-1.301e+00,0.1783
-1.299e+00,0.1791
-1.298e+00,0.1775
-1.296e+00,0.1767
-1.294e+00,0.1767
-1.293e+00,0.1767
-1.291e+00,0.1767
-1.290e+00,0.1775
-1.288e+00,0.1767
-1.286e+00,0.1767
-1.285e+00,0.1775
-1.283e+00,0.1767
-1.282e+00,0.1751
-1.280e+00,0.1751
-1.278e+00,0.1767
-1.277e+00,0.1775
-1.275e+00,0.1767
-1.274e+00,0.1759
-1.272e+00,0.1759
-1.270e+00,0.1775
-1.269e+00,0.1791
-1.267e+00,0.1783
-1.266e+00,0.1775
-1.264e+00,0.1775
-1.262e+00,0.1775
-1.261e+00,0.1783
-1.259e+00,0.1775
-1.258e+00,0.1759
-1.256e+00,0.1751
-1.254e+00,0.1743
-1.253e+00,0.1751
-1.251e+00,0.1751
-1.250e+00,0.1735
-1.248e+00,0.1743
-1.246e+00,0.1735
-1.245e+00,0.1743
-1.243e+00,0.1743
-1.242e+00,0.1719
-1.240e+00,0.1719
-1.238e+00,0.1735
-1.237e+00,0.1743
-1.235e+00,0.1727
-1.234e+00,0.1695
-1.232e+00,0.1703
-1.230e+00,0.1727
-1.229e+00,0.1735
-1.227e+00,0.1727
-1.226e+00,0.1679
-1.224e+00,0.1695
-1.222e+00,0.1727
-1.221e+00,0.1719
-1.219e+00,0.1671
-1.218e+00,0.1647
-1.216e+00,0.1679
-1.214e+00,0.1711
-1.213e+00,0.1695
-1.211e+00,0.1655
-1.210e+00,0.1663
-1.208e+00,0.1711
-1.206e+00,0.1719
-1.205e+00,0.1687
-1.203e+00,0.1655
-1.202e+00,0.1687
-1.200e+00,0.1727
-1.198e+00,0.1703
-1.197e+00,0.1663
-1.195e+00,0.1639
-1.194e+00,0.1679
-1.192e+00,0.1719
-1.190e+00,0.1703
-1.189e+00,0.1687
-1.187e+00,0.1711
-1.186e+00,0.1743
-1.184e+00,0.1743
-1.182e+00,0.1727
-1.181e+00,0.1711
-1.179e+00,0.1735
-1.178e+00,0.1743
-1.176e+00,0.1751
-1.174e+00,0.1735
-1.173e+00,0.1743
-1.171e+00,0.1751
-1.170e+00,0.1759
-1.168e+00,0.1759
-1.166e+00,0.1767
-1.165e+00,0.1767
-1.163e+00,0.1775
-1.162e+00,0.1759
-1.160e+00,0.1775
-1.158e+00,0.1775
-1.157e+00,0.1775
-1.155e+00,0.1759
-1.154e+00,0.1751
-1.152e+00,0.1775
-1.150e+00,0.1783
-1.149e+00,0.1775
-1.147e+00,0.1767
-1.146e+00,0.1767
-1.144e+00,0.1783
-1.142e+00,0.1783
-1.141e+00,0.1759
-1.139e+00,0.1767
-1.138e+00,0.1783
-1.136e+00,0.1791
-1.134e+00,0.1775
-1.133e+00,0.1743
-1.131e+00,0.1759
-1.130e+00,0.1791
-1.128e+00,0.1791
-1.126e+00,0.1767
-1.125e+00,0.1735
-1.123e+00,0.1759
-1.122e+00,0.1783
-1.120e+00,0.1775
-1.118e+00,0.1735
-1.117e+00,0.1735
-1.115e+00,0.1767
-1.114e+00,0.1775
-1.112e+00,0.1759
-1.110e+00,0.1743
-1.109e+00,0.1767
-1.107e+00,0.1791
-1.106e+00,0.1783
-1.104e+00,0.1751
-1.102e+00,0.1751
-1.101e+00,0.1759
-1.099e+00,0.1767
-1.098e+00,0.1735
-1.096e+00,0.1711
-1.094e+00,0.1719
-1.093e+00,0.1735
-1.091e+00,0.1743
-1.090e+00,0.1743
-1.088e+00,0.1743
-1.086e+00,0.1759
-1.085e+00,0.1751
-1.083e+00,0.1743
-1.082e+00,0.1751
-1.080e+00,0.1775
-1.078e+00,0.1767
-1.077e+00,0.1735
-1.075e+00,0.1711
-1.074e+00,0.1743
-1.072e+00,0.1775
-1.070e+00,0.1735
-1.069e+00,0.1703
-1.067e+00,0.1703
-1.066e+00,0.1767
-1.064e+00,0.1759
-1.062e+00,0.1719
-1.061e+00,0.1687
-1.059e+00,0.1743
-1.058e+00,0.1775
-1.056e+00,0.1775
-1.054e+00,0.1727
-1.053e+00,0.1743
-1.051e+00,0.1783
-1.050e+00,0.1807
-1.048e+00,0.1799
-1.046e+00,0.1767
-1.045e+00,0.1783
-1.043e+00,0.1807
-1.042e+00,0.1807
-1.040e+00,0.1775
-1.038e+00,0.1783
-1.037e+00,0.1791
-1.035e+00,0.1799
-1.034e+00,0.1783
-1.032e+00,0.1775
-1.030e+00,0.1783
-1.029e+00,0.1799
-1.027e+00,0.1807
-1.026e+00,0.1783
-1.024e+00,0.1775
-1.022e+00,0.1783
-1.021e+00,0.1791
-1.019e+00,0.1775
-1.018e+00,0.1783
-1.016e+00,0.1783
-1.014e+00,0.1791
-1.013e+00,0.1783
-1.011e+00,0.1783
-1.010e+00,0.1791
-1.008e+00,0.1807
-1.006e+00,0.1807
-1.005e+00,0.1783
-1.003e+00,0.1799
-1.002e+00,0.1807
-1.000e+00,0.1807
-9.984e-01,0.1807
-9.968e-01,0.1807
-9.952e-01,0.1799
-9.936e-01,0.1783
-9.920e-01,0.1783
-9.904e-01,0.1807
-9.888e-01,0.1783
-9.872e-01,0.1735
-9.856e-01,0.1687
-9.840e-01,0.1711
-9.824e-01,0.1703
-9.808e-01,0.1623
-9.792e-01,0.1487
-9.776e-01,0.1471
-9.760e-01,0.1487
-9.744e-01,0.1359
-9.728e-01,0.1119
-9.712e-01,0.0983
-9.696e-01,0.0991
-9.680e-01,0.0975
-9.664e-01,0.0783
-9.648e-01,0.0679
-9.632e-01,0.0639
-9.616e-01,0.0639
-9.600e-01,0.0615
-9.584e-01,0.0623
-9.568e-01,0.0655
-9.552e-01,0.0615
-9.536e-01,0.0655
-9.520e-01,0.0791
-9.504e-01,0.0919
-9.488e-01,0.0919
-9.472e-01,0.0943
-9.456e-01,0.1127
-9.440e-01,0.1383
-9.424e-01,0.1463
-9.408e-01,0.1431
-9.392e-01,0.1463
-9.376e-01,0.1583
-9.360e-01,0.1663
-9.344e-01,0.1679
-9.328e-01,0.1679
-9.312e-01,0.1719
-9.296e-01,0.1775
-9.280e-01,0.1791
-9.264e-01,0.1807
-9.248e-01,0.1807
-9.232e-01,0.1807
-9.216e-01,0.1807
-9.200e-01,0.1799
-9.184e-01,0.1791
-9.168e-01,0.1743
-9.152e-01,0.1703
-9.136e-01,0.1703
-9.120e-01,0.1695
-9.104e-01,0.1631
-9.088e-01,0.1511
-9.072e-01,0.1471
-9.056e-01,0.1439
-9.040e-01,0.1303
-9.024e-01,0.1183
-9.008e-01,0.1143
-8.992e-01,0.1071
-8.976e-01,0.0967
-8.960e-01,0.0847
-8.944e-01,0.0799
-8.928e-01,0.0783
-8.912e-01,0.0751
-8.896e-01,0.0655
-8.880e-01,0.0631
-8.864e-01,0.0623
-8.848e-01,0.0615
-8.832e-01,0.0647
-8.816e-01,0.0711
-8.800e-01,0.0863
-8.784e-01,0.0959
-8.768e-01,0.1039
-8.752e-01,0.1119
-8.736e-01,0.1175
-8.720e-01,0.1231
-8.704e-01,0.1319
-8.688e-01,0.1527
-8.672e-01,0.1655
-8.656e-01,0.1687
-8.640e-01,0.1719
-8.624e-01,0.1783
-8.608e-01,0.1807
-8.592e-01,0.1799
-8.576e-01,0.1799
-8.560e-01,0.1799
-8.544e-01,0.1767
-8.528e-01,0.1671
-8.512e-01,0.1647
-8.496e-01,0.1639
-8.480e-01,0.1631
-8.464e-01,0.1511
-8.448e-01,0.1431
-8.432e-01,0.1391
-8.416e-01,0.1375
-8.400e-01,0.1263
-8.384e-01,0.1207
-8.368e-01,0.1055
-8.352e-01,0.0887
-8.336e-01,0.0743
-8.320e-01,0.0655
-8.304e-01,0.0655
-8.288e-01,0.0647
-8.272e-01,0.0631
-8.256e-01,0.0631
-8.240e-01,0.0639
-8.224e-01,0.0655
-8.208e-01,0.0679
-8.192e-01,0.0775
-8.176e-01,0.0839
-8.160e-01,0.0823
-8.144e-01,0.0799
-8.128e-01,0.0847
-8.112e-01,0.0911
-8.096e-01,0.0991
-8.080e-01,0.1007
-8.064e-01,0.1031
-8.048e-01,0.1231
-8.032e-01,0.1447
-8.016e-01,0.1519
-8.000e-01,0.1495
-7.984e-01,0.1543
-7.968e-01,0.1647
-7.952e-01,0.1679
-7.936e-01,0.1687
-7.920e-01,0.1759
-7.904e-01,0.1783
-7.888e-01,0.1799
-7.872e-01,0.1807
-7.856e-01,0.1815
-7.840e-01,0.1807
-7.824e-01,0.1807
-7.808e-01,0.1799
-7.792e-01,0.1775
-7.776e-01,0.1727
-7.760e-01,0.1679
-7.744e-01,0.1671
-7.728e-01,0.1639
-7.712e-01,0.1575
-7.696e-01,0.1343
-7.680e-01,0.1119
-7.664e-01,0.1111
-7.648e-01,0.1015
-7.632e-01,0.0847
-7.616e-01,0.0655
-7.600e-01,0.0607
-7.584e-01,0.0615
-7.568e-01,0.0615
-7.552e-01,0.0711
-7.536e-01,0.0911
-7.520e-01,0.0975
-7.504e-01,0.1015
-7.488e-01,0.1271
-7.472e-01,0.1503
-7.456e-01,0.1719
-7.440e-01,0.1719
-7.424e-01,0.1727
-7.408e-01,0.1711
-7.392e-01,0.1735
-7.376e-01,0.1743
-7.360e-01,0.1743
-7.344e-01,0.1719
-7.328e-01,0.1759
-7.312e-01,0.1799
-7.296e-01,0.1807
-7.280e-01,0.1791
-7.264e-01,0.1791
-7.248e-01,0.1783
-7.232e-01,0.1743
-7.216e-01,0.1695
-7.200e-01,0.1615
-7.184e-01,0.1599
-7.168e-01,0.1655
-7.152e-01,0.1455
-7.136e-01,0.1167
-7.120e-01,0.0951
-7.104e-01,0.0975
-7.088e-01,0.1095
-7.072e-01,0.1047
-7.056e-01,0.0879
-7.040e-01,0.0823
-7.024e-01,0.0839
-7.008e-01,0.0831
-6.992e-01,0.0703
-6.976e-01,0.0623
-6.960e-01,0.0607
-6.944e-01,0.0599
-6.928e-01,0.0599
-6.912e-01,0.0663
-6.896e-01,0.0743
-6.880e-01,0.0719
-6.864e-01,0.0759
-6.848e-01,0.0879
-6.832e-01,0.1079
-6.816e-01,0.1207
-6.800e-01,0.1287
-6.784e-01,0.1399
-6.768e-01,0.1559
-6.752e-01,0.1703
-6.736e-01,0.1767
-6.720e-01,0.1775
-6.704e-01,0.1799
-6.688e-01,0.1823
-6.672e-01,0.1823
-6.656e-01,0.1831
-6.640e-01,0.1815
-6.624e-01,0.1783
-6.608e-01,0.1743
-6.592e-01,0.1631
-6.576e-01,0.1535
-6.560e-01,0.1343
-6.544e-01,0.1255
-6.528e-01,0.1311
-6.512e-01,0.1303
-6.496e-01,0.1239
-6.480e-01,0.1255
-6.464e-01,0.1103
-6.448e-01,0.0983
-6.432e-01,0.0895
-6.416e-01,0.0903
-6.400e-01,0.0903
-6.384e-01,0.0775
-6.368e-01,0.0671
-6.352e-01,0.0615
-6.336e-01,0.0607
-6.320e-01,0.0607
-6.304e-01,0.0607
-6.288e-01,0.0679
-6.272e-01,0.0687
-6.256e-01,0.0671
-6.240e-01,0.0639
-6.224e-01,0.0711
-6.208e-01,0.0823
-6.192e-01,0.0991
-6.176e-01,0.0983
-6.160e-01,0.0951
-6.144e-01,0.1079
-6.128e-01,0.1327
-6.112e-01,0.1431
-6.096e-01,0.1271
-6.080e-01,0.1151
-6.064e-01,0.1287
-6.048e-01,0.1551
-6.032e-01,0.1687
-6.016e-01,0.1751
-6.000e-01,0.1711
-5.984e-01,0.1775
-5.968e-01,0.1807
-5.952e-01,0.1807
-5.936e-01,0.1807
-5.920e-01,0.1807
-5.904e-01,0.1807
-5.888e-01,0.1735
-5.872e-01,0.1695
-5.856e-01,0.1695
-5.840e-01,0.1791
-5.824e-01,0.1743
-5.808e-01,0.1535
-5.792e-01,0.1455
-5.776e-01,0.1583
-5.760e-01,0.1671
-5.744e-01,0.1623
-5.728e-01,0.1423
-5.712e-01,0.1279
-5.696e-01,0.1423
-5.680e-01,0.1551
-5.664e-01,0.1407
-5.648e-01,0.1135
-5.632e-01,0.1087
-5.616e-01,0.1119
-5.600e-01,0.1055
-5.584e-01,0.0815
-5.568e-01,0.0647
-5.552e-01,0.0599
-5.536e-01,0.0607
-5.520e-01,0.0607
-5.504e-01,0.0607
-5.488e-01,0.0615
-5.472e-01,0.0623
-5.456e-01,0.0631
-5.440e-01,0.0623
-5.424e-01,0.0615
-5.408e-01,0.0623
-5.392e-01,0.0679
-5.376e-01,0.0775
-5.360e-01,0.0767
-5.344e-01,0.0815
-5.328e-01,0.0919
-5.312e-01,0.1047
-5.296e-01,0.1191
-5.280e-01,0.1167
-5.264e-01,0.1247
-5.248e-01,0.1431
-5.232e-01,0.1503
-5.216e-01,0.1439
-5.200e-01,0.1447
-5.184e-01,0.1703
-5.168e-01,0.1791
-5.152e-01,0.1799
-5.136e-01,0.1783
-5.120e-01,0.1791
-5.104e-01,0.1807
-5.088e-01,0.1815
-5.072e-01,0.1823
-5.056e-01,0.1815
-5.040e-01,0.1783
-5.024e-01,0.1687
-5.008e-01,0.1671
-4.992e-01,0.1743
-4.976e-01,0.1751
-4.960e-01,0.1631
-4.944e-01,0.1439
-4.928e-01,0.1303
-4.912e-01,0.1303
-4.896e-01,0.1239
-4.880e-01,0.1071
-4.864e-01,0.0935
-4.848e-01,0.0951
-4.832e-01,0.0903
-4.816e-01,0.0815
-4.800e-01,0.0727
-4.784e-01,0.0695
-4.768e-01,0.0687
-4.752e-01,0.0727
-4.736e-01,0.0735
-4.720e-01,0.0695
-4.704e-01,0.0639
-4.688e-01,0.0639
-4.672e-01,0.0631
-4.656e-01,0.0639
-4.640e-01,0.0703
-4.624e-01,0.0711
-4.608e-01,0.0703
-4.592e-01,0.0711
-4.576e-01,0.0735
-4.560e-01,0.0839
-4.544e-01,0.0871
-4.528e-01,0.0847
-4.512e-01,0.0775
-4.496e-01,0.0783
-4.480e-01,0.0895
-4.464e-01,0.1143
-4.448e-01,0.1199
-4.432e-01,0.1231
-4.416e-01,0.1231
-4.400e-01,0.1335
-4.384e-01,0.1439
-4.368e-01,0.1479
-4.352e-01,0.1431
-4.336e-01,0.1407
-4.320e-01,0.1599
-4.304e-01,0.1695
-4.288e-01,0.1687
-4.272e-01,0.1735
-4.256e-01,0.1807
-4.240e-01,0.1815
-4.224e-01,0.1815
-4.208e-01,0.1815
-4.192e-01,0.1799
-4.176e-01,0.1759
-4.160e-01,0.1671
-4.144e-01,0.1655
-4.128e-01,0.1687
-4.112e-01,0.1663
-4.096e-01,0.1647
-4.080e-01,0.1647
-4.064e-01,0.1711
-4.048e-01,0.1687
-4.032e-01,0.1607
-4.016e-01,0.1415
-4.000e-01,0.1359
-3.984e-01,0.1503
-3.968e-01,0.1487
-3.952e-01,0.1375
-3.936e-01,0.1215
-3.920e-01,0.1119
-3.904e-01,0.1119
-3.888e-01,0.1007
-3.872e-01,0.0863
-3.856e-01,0.0831
-3.840e-01,0.0711
-3.824e-01,0.0663
-3.808e-01,0.0663
-3.792e-01,0.0647
-3.776e-01,0.0655
-3.760e-01,0.0655
-3.744e-01,0.0639
-3.728e-01,0.0655
-3.712e-01,0.0655
-3.696e-01,0.0631
-3.680e-01,0.0623
-3.664e-01,0.0615
-3.648e-01,0.0607
-3.632e-01,0.0607
-3.616e-01,0.0631
-3.600e-01,0.0687
-3.584e-01,0.0719
-3.568e-01,0.0751
-3.552e-01,0.0799
-3.536e-01,0.0887
-3.520e-01,0.0975
-3.504e-01,0.1023
-3.488e-01,0.1079
-3.472e-01,0.1127
-3.456e-01,0.1199
-3.440e-01,0.1199
-3.424e-01,0.1207
-3.408e-01,0.1207
-3.392e-01,0.1327
-3.376e-01,0.1495
-3.360e-01,0.1591
-3.344e-01,0.1583
-3.328e-01,0.1615
-3.312e-01,0.1615
-3.296e-01,0.1695
-3.280e-01,0.1703
-3.264e-01,0.1743
-3.248e-01,0.1767
-3.232e-01,0.1799
-3.216e-01,0.1799
-3.200e-01,0.1807
-3.184e-01,0.1807
-3.168e-01,0.1799
-3.152e-01,0.1807
-3.136e-01,0.1799
-3.120e-01,0.1799
-3.104e-01,0.1799
-3.088e-01,0.1791
-3.072e-01,0.1791
-3.056e-01,0.1775
-3.040e-01,0.1759
-3.024e-01,0.1727
-3.008e-01,0.1663
-2.992e-01,0.1527
-2.976e-01,0.1559
-2.960e-01,0.1495
-2.944e-01,0.1527
-2.928e-01,0.1439
-2.912e-01,0.1383
-2.896e-01,0.1311
-2.880e-01,0.1271
-2.864e-01,0.1247
-2.848e-01,0.1151
-2.832e-01,0.0991
-2.816e-01,0.0863
-2.800e-01,0.0879
-2.784e-01,0.0823
-2.768e-01,0.0775
-2.752e-01,0.0711
-2.736e-01,0.0687
-2.720e-01,0.0695
-2.704e-01,0.0719
-2.688e-01,0.0679
-2.672e-01,0.0695
-2.656e-01,0.0647
-2.640e-01,0.0647
-2.624e-01,0.0639
-2.608e-01,0.0631
-2.592e-01,0.0623
-2.576e-01,0.0623
-2.560e-01,0.0615
-2.544e-01,0.0615
-2.528e-01,0.0607
-2.512e-01,0.0631
-2.496e-01,0.0711
-2.480e-01,0.0743
-2.464e-01,0.0711
-2.448e-01,0.0719
-2.432e-01,0.0839
-2.416e-01,0.0991
-2.400e-01,0.1007
-2.384e-01,0.0895
-2.368e-01,0.0751
-2.352e-01,0.0887
-2.336e-01,0.1055
-2.320e-01,0.1135
-2.304e-01,0.1071
-2.288e-01,0.1111
-2.272e-01,0.1255
-2.256e-01,0.1487
-2.240e-01,0.1399
-2.224e-01,0.1279
-2.208e-01,0.1303
-2.192e-01,0.1559
-2.176e-01,0.1655
-2.160e-01,0.1647
-2.144e-01,0.1495
-2.128e-01,0.1487
-2.112e-01,0.1743
-2.096e-01,0.1807
-2.080e-01,0.1815
-2.064e-01,0.1775
-2.048e-01,0.1719
-2.032e-01,0.1775
-2.016e-01,0.1807
-2.000e-01,0.1807
-1.984e-01,0.1807
-1.968e-01,0.1783
-1.952e-01,0.1791
-1.936e-01,0.1799
-1.920e-01,0.1799
-1.904e-01,0.1807
-1.888e-01,0.1807
-1.872e-01,0.1807
-1.856e-01,0.1799
-1.840e-01,0.1759
-1.824e-01,0.1783
-1.808e-01,0.1791
-1.792e-01,0.1775
-1.776e-01,0.1727
-1.760e-01,0.1631
-1.744e-01,0.1543
-1.728e-01,0.1527
-1.712e-01,0.1607
-1.696e-01,0.1655
-1.680e-01,0.1575
-1.664e-01,0.1431
-1.648e-01,0.1519
-1.632e-01,0.1615
-1.616e-01,0.1599
-1.600e-01,0.1423
-1.584e-01,0.1223
-1.568e-01,0.1303
-1.552e-01,0.1495
-1.536e-01,0.1527
-1.520e-01,0.1327
-1.504e-01,0.1207
-1.488e-01,0.1319
-1.472e-01,0.1511
-1.456e-01,0.1391
-1.440e-01,0.1111
-1.424e-01,0.0847
-1.408e-01,0.1023
-1.392e-01,0.1183
-1.376e-01,0.1239
-1.360e-01,0.0847
-1.344e-01,0.0695
-1.328e-01,0.0711
-1.312e-01,0.0935
-1.296e-01,0.0983
-1.280e-01,0.0775
-1.264e-01,0.0655
-1.248e-01,0.0631
-1.232e-01,0.0687
-1.216e-01,0.0695
-1.200e-01,0.0663
-1.184e-01,0.0647
-1.168e-01,0.0639
-1.152e-01,0.0607
-1.136e-01,0.0615
-1.120e-01,0.0615
-1.104e-01,0.0703
-1.088e-01,0.0871
-1.072e-01,0.0775
-1.056e-01,0.0663
-1.040e-01,0.0647
-1.024e-01,0.0839
-1.008e-01,0.0959
-9.920e-02,0.0791
-9.760e-02,0.0679
-9.600e-02,0.0727
-9.440e-02,0.0975
-9.280e-02,0.1063
-9.120e-02,0.0959
-8.960e-02,0.0775
-8.800e-02,0.0871
-8.640e-02,0.1151
-8.480e-02,0.1263
-8.320e-02,0.0959
-8.160e-02,0.0911
-8.000e-02,0.1047
-7.840e-02,0.1391
-7.680e-02,0.1391
-7.520e-02,0.1151
-7.360e-02,0.0927
-7.200e-02,0.1199
-7.040e-02,0.1383
-6.880e-02,0.1439
-6.720e-02,0.1279
-6.560e-02,0.1143
-6.400e-02,0.1423
-6.240e-02,0.1655
-6.080e-02,0.1591
-5.920e-02,0.1519
-5.760e-02,0.1447
-5.600e-02,0.1487
-5.440e-02,0.1615
-5.280e-02,0.1567
-5.120e-02,0.1583
-4.960e-02,0.1607
-4.800e-02,0.1695
-4.640e-02,0.1727
-4.480e-02,0.1767
-4.320e-02,0.1759
-4.160e-02,0.1799
-4.000e-02,0.1799
-3.840e-02,0.1807
-3.680e-02,0.1807
-3.520e-02,0.1799
-3.360e-02,0.1807
-3.200e-02,0.1807
-3.040e-02,0.1807
-2.880e-02,0.1815
-2.720e-02,0.1807
-2.560e-02,0.1807
-2.400e-02,0.1799
-2.240e-02,0.1767
-2.080e-02,0.1775
-1.920e-02,0.1791
-1.760e-02,0.1783
-1.600e-02,0.1767
-1.440e-02,0.1743
-1.280e-02,0.1759
-1.120e-02,0.1767
-9.600e-03,0.1759
-8.000e-03,0.1663
-6.400e-03,0.1679
-4.800e-03,0.1567
-3.200e-03,0.1615
-1.600e-03,0.1591
2.925e-14,0.1559
1.600e-03,0.1543
3.200e-03,0.1607
4.800e-03,0.1599
6.400e-03,0.1615
8.000e-03,0.1543
9.600e-03,0.1591
1.120e-02,0.1599
1.280e-02,0.1519
1.440e-02,0.1311
1.600e-02,0.1199
1.760e-02,0.1287
1.920e-02,0.1367
2.080e-02,0.1247
2.240e-02,0.0951
2.400e-02,0.0895
2.560e-02,0.1031
2.720e-02,0.1183
2.880e-02,0.1023
3.040e-02,0.0887
3.200e-02,0.0807
3.360e-02,0.0903
3.520e-02,0.0887
3.680e-02,0.0855
3.840e-02,0.0791
4.000e-02,0.0815
4.160e-02,0.0807
4.320e-02,0.0839
4.480e-02,0.0783
4.640e-02,0.0743
4.800e-02,0.0735
4.960e-02,0.0735
5.120e-02,0.0703
5.280e-02,0.0655
5.440e-02,0.0623
5.600e-02,0.0623
5.760e-02,0.0623
5.920e-02,0.0615
6.080e-02,0.0607
6.240e-02,0.0623
6.400e-02,0.0607
6.560e-02,0.0615
6.720e-02,0.0607
6.880e-02,0.0639
7.040e-02,0.0679
7.200e-02,0.0671
7.360e-02,0.0631
7.520e-02,0.0615
7.680e-02,0.0623
7.840e-02,0.0751
8.000e-02,0.0751
8.160e-02,0.0679
8.320e-02,0.0631
8.480e-02,0.0671
8.640e-02,0.0807
8.800e-02,0.0879
8.960e-02,0.0855
9.120e-02,0.0839
9.280e-02,0.0871
9.440e-02,0.0983
9.600e-02,0.1023
9.760e-02,0.0943
9.920e-02,0.0943
1.008e-01,0.0943
1.024e-01,0.0951
1.040e-01,0.0959
1.056e-01,0.0887
1.072e-01,0.0903
1.088e-01,0.0983
1.104e-01,0.0999
1.120e-01,0.0999
1.136e-01,0.0943
1.152e-01,0.1007
1.168e-01,0.1103
1.184e-01,0.1175
1.200e-01,0.1119
1.216e-01,0.1103
1.232e-01,0.1191
1.248e-01,0.1311
1.264e-01,0.1375
1.280e-01,0.1351
1.296e-01,0.1319
1.312e-01,0.1351
1.328e-01,0.1375
1.344e-01,0.1375
1.360e-01,0.1343
1.376e-01,0.1279
1.392e-01,0.1327
1.408e-01,0.1383
1.424e-01,0.1359
1.440e-01,0.1271
1.456e-01,0.1279
1.472e-01,0.1359
1.488e-01,0.1447
1.504e-01,0.1471
1.520e-01,0.1479
1.536e-01,0.1535
1.552e-01,0.1591
1.568e-01,0.1583
